<svg xmlns="http://www.w3.org/2000/svg" viewBox="0 0 33.914 40.862">
  <defs>
    <style>
      .cls-1 {
        fill: #23b852;
      }
    </style>
  </defs>
  <g id="Group_22069" data-name="Group 22069" transform="translate(33.914 40.862) rotate(180)">
    <g id="Group_15331" data-name="Group 15331" transform="translate(0 0)">
      <path id="Path_48021" data-name="Path 48021" class="cls-1" d="M8.212,16.69,6.133,18.744V1.125a1.125,1.125,0,1,0-2.251,0V18.633L1.916,16.69a1.125,1.125,0,0,0-1.582,1.6L2.674,20.6a3.368,3.368,0,0,0,4.779,0l2.34-2.312a1.125,1.125,0,0,0-1.582-1.6Z" transform="translate(22.087 40.862) rotate(180)"/>
      <path id="Path_48022" data-name="Path 48022" class="cls-1" d="M11.658,0a1.325,1.325,0,0,0-1.325,1.325,2.652,2.652,0,0,1-2.65,2.65H1.325a1.325,1.325,0,0,0,0,2.65H7.684a5.305,5.305,0,0,0,5.3-5.3A1.325,1.325,0,0,0,11.658,0Z" transform="translate(20.931 21.983)"/>
      <path id="Path_48023" data-name="Path 48023" class="cls-1" d="M10.345,11.588a1.324,1.324,0,0,0,1.831-.4,7.451,7.451,0,0,0,1.2-4.037A6.942,6.942,0,0,0,6.69,0,6.941,6.941,0,0,0,0,7.154,7.281,7.281,0,0,0,1.141,11.2,1.325,1.325,0,0,0,3.363,9.752a4.68,4.68,0,0,1-.713-2.6A4.3,4.3,0,0,1,6.69,2.65a4.3,4.3,0,0,1,4.041,4.5,4.808,4.808,0,0,1-.783,2.6A1.325,1.325,0,0,0,10.345,11.588Z" transform="translate(10.267 5.225)"/>
      <ellipse id="Ellipse_754" data-name="Ellipse 754" class="cls-1" cx="1.325" cy="1.325" rx="1.325" ry="1.325" transform="translate(26.164 11.062)"/>
      <ellipse id="Ellipse_755" data-name="Ellipse 755" class="cls-1" cx="1.325" cy="1.325" rx="1.325" ry="1.325" transform="translate(5.1 11.062)"/>
      <path id="Path_48024" data-name="Path 48024" class="cls-1" d="M28.615,0H5.3A5.305,5.305,0,0,0,0,5.3V23.308a5.305,5.305,0,0,0,5.3,5.3h6.359a1.325,1.325,0,1,0,0-2.65H5.3a2.653,2.653,0,0,1-2.65-2.65V5.3A2.653,2.653,0,0,1,5.3,2.65H28.615a2.653,2.653,0,0,1,2.65,2.65v7.684a1.325,1.325,0,0,0,2.65,0V5.3A5.305,5.305,0,0,0,28.615,0Z"/>
    </g>
  </g>
</svg>
